<svg width="1792" height="1792" xmlns="http://www.w3.org/2000/svg">

 <g>
  <title>background</title>
  <rect fill="#ffeb33" id="canvas_background" height="1794" width="1794" y="-1" x="-1"/>
 </g>
 <g>
  <title>Layer 1</title>
  <path stroke="null" fill="#00000e" id="svg_1" d="m1297.365537,1462.996226l-861.279563,0l0,-369.780134l-123.260045,0l0,493.040179l1107.799652,0l0,-493.040179l-123.260045,0l0,369.780134zm-725.693514,-403.676647l25.422384,-120.948919l603.203844,127.111921l-25.422384,120.178544l-603.203844,-126.341546zm79.348654,-288.120355l51.615144,-112.474791l558.522078,261.15722l-51.615144,111.704416l-558.522078,-260.386845zm154.845431,-274.2536l78.578279,-94.756159l473.010422,395.202519l-78.578279,94.756159l-473.010422,-395.202519zm305.838986,-291.201856l367.469008,493.810554l-98.608036,73.956027l-367.469008,-493.810554l98.608036,-73.956027zm-553.129451,1133.222037l0,-122.489669l616.300224,0l0,122.489669l-616.300224,0z"/>
 </g>
</svg>